{
  "project_info": {
<<<<<<< HEAD
    "project_number": "129242619375",
    "firebase_url": "https://csci3130-9a834.firebaseio.com",
    "project_id": "csci3130-9a834",
    "storage_bucket": "csci3130-9a834.appspot.com"
=======
    "project_number": "713685779013",
    "firebase_url": "https://sweng-14a4a.firebaseio.com",
    "project_id": "sweng-14a4a",
    "storage_bucket": "sweng-14a4a.appspot.com"
>>>>>>> 5e47f7b914c28984f44796e5e39644e15da7b34d
  },
  "client": [
    {
      "client_info": {
<<<<<<< HEAD
        "mobilesdk_app_id": "1:129242619375:android:f8873e17b0c70739",
=======
        "mobilesdk_app_id": "1:713685779013:android:f8873e17b0c70739",
>>>>>>> 5e47f7b914c28984f44796e5e39644e15da7b34d
        "android_client_info": {
          "package_name": "ca.csci3130.fitnessapp"
        }
      },
      "oauth_client": [
        {
<<<<<<< HEAD
          "client_id": "129242619375-jiiae1o68e1f1idah2cdrjlg02hcc3e2.apps.googleusercontent.com",
          "client_type": 1,
          "android_info": {
            "package_name": "ca.csci3130.fitnessapp",
            "certificate_hash": "d3b5ea8e5b23c3ec63d32a9718f02129a0e778e8"
          }
        },
        {
          "client_id": "129242619375-puporhlm00k4k1nrv8fvvgvrcs8941fn.apps.googleusercontent.com",
=======
          "client_id": "713685779013-tapd8e5at9efd1u07jamb6mdodf0c9hf.apps.googleusercontent.com",
>>>>>>> 5e47f7b914c28984f44796e5e39644e15da7b34d
          "client_type": 3
        }
      ],
      "api_key": [
        {
<<<<<<< HEAD
          "current_key": "AIzaSyBmRw68TFAi66XbTs5MbhYDvxO5PwG3Mps"
=======
          "current_key": "AIzaSyAvG_8M5nxRP_eJLlIOgUtymd8zowgUqhc"
>>>>>>> 5e47f7b914c28984f44796e5e39644e15da7b34d
        }
      ],
      "services": {
        "analytics_service": {
          "status": 1
        },
        "appinvite_service": {
<<<<<<< HEAD
          "status": 2,
          "other_platform_oauth_client": [
            {
              "client_id": "129242619375-puporhlm00k4k1nrv8fvvgvrcs8941fn.apps.googleusercontent.com",
              "client_type": 3
            }
          ]
=======
          "status": 1,
          "other_platform_oauth_client": []
>>>>>>> 5e47f7b914c28984f44796e5e39644e15da7b34d
        },
        "ads_service": {
          "status": 2
        }
      }
    }
  ],
  "configuration_version": "1"
}